{
    "KPlugin": {
        "BugReportUrl": "https://bugs.kde.org/enter_bug.cgi?product=systemsettings&component=kcm_kwalletconfig5",
        "Description": "KDE Wallet Configuration",
        "Description[ar]": "ضبط محفظة كِيدِي",
        "Description[az]": "KDE cüzdanı ayarları",
        "Description[bg]": "Конфигуриране на Портфейл",
        "Description[ca@valencia]": "Configureu la cartera de KDE",
        "Description[ca]": "Configuració de la cartera del KDE",
        "Description[cs]": "Nastavení úschovny KDE",
        "Description[de]": "Einrichten des Passwortspeichers (KWallet)",
        "Description[en_GB]": "KDE Wallet Configuration",
        "Description[eo]": "KDE paperuja agordo",
        "Description[es]": "Configuración de la cartera de KDE",
        "Description[eu]": "KDEren zorroaren konfigurazioa",
        "Description[fi]": "KDE-lompakon asetukset",
        "Description[fr]": "Configuration du portefeuille de KDE",
        "Description[ia]": "Configuration de portafolio de KDE",
        "Description[is]": "Stillingar KDE-veskisins",
        "Description[it]": "Configurazione del portafogli di KDE",
        "Description[ka]": "KDE-ის საფულის მორგება",
        "Description[ko]": "KDE 지갑 설정",
        "Description[lt]": "KDE slaptažodinių konfigūravimas",
        "Description[nl]": "KDE-portefeuille configureren",
        "Description[nn]": "Oppsett av KDE Wallet",
        "Description[pl]": "Ustawienia portfela KDE",
        "Description[pt]": "Configuração da Carteira do KDE",
        "Description[pt_BR]": "Configuração da carteira do KDE",
        "Description[ru]": "Параметры бумажника",
        "Description[sl]": "Konfiguracija Listnice KDE",
        "Description[ta]": "கே.டீ.யீ. வாலட் அமைப்புகள்",
        "Description[tr]": "KDE Cüzdan Yapılandırması",
        "Description[uk]": "Налаштування KWallet",
        "Description[vi]": "Cấu hình Ví KDE",
        "Description[x-test]": "xxKDE Wallet Configurationxx",
        "Description[zh_CN]": "KDE 密码库配置",
        "Icon": "kwalletmanager",
        "Name": "KDE Wallet",
        "Name[ar]": "محفظة كِيدِي",
        "Name[az]": "KDE cüzdanı",
        "Name[bg]": "Портфейл на KDE",
        "Name[br]": "Doug-paperoù KDE",
        "Name[bs]": "KDE novčanik",
        "Name[ca@valencia]": "Cartera de KDE",
        "Name[ca]": "Cartera del KDE",
        "Name[cs]": "Úschovna KDE",
        "Name[cy]": "Waled KDE",
        "Name[da]": "KDE's tegnebog",
        "Name[de]": "KDE-Passwortspeicher",
        "Name[el]": "Πορτοφόλι του KDE",
        "Name[en_GB]": "KDE Wallet",
        "Name[eo]": "KDE paperujo",
        "Name[es]": "Cartera de KDE",
        "Name[et]": "KDE turvalaegas",
        "Name[eu]": "KDEren zorroa",
        "Name[fi]": "KDE-lompakko",
        "Name[fr]": "Portefeuille de KDE",
        "Name[ga]": "KDE Wallet",
        "Name[gl]": "KDE Wallet",
        "Name[he]": "KDE Wallet",
        "Name[hne]": "केडीई वालेट",
        "Name[hr]": "KDE-ov novčanik",
        "Name[hu]": "KDE Wallet",
        "Name[ia]": "KDE Wallet (Portafolio de KDE)",
        "Name[id]": "Wallet KDE",
        "Name[ie]": "Porta-papere de KDE",
        "Name[is]": "KDE-veski",
        "Name[it]": "Portafogli di KDE",
        "Name[ja]": "KDE ウォレット",
        "Name[ka]": "KDE -ის საფულე",
        "Name[kk]": "KDE әмияны",
        "Name[km]": "កាបូប​របស់ KDE",
        "Name[ko]": "KDE 지갑",
        "Name[lt]": "KDE slaptažodinės",
        "Name[lv]": "KDE Maks",
        "Name[mk]": "KDE Паричник",
        "Name[mr]": "केडीई पाकीट",
        "Name[nb]": "KDE Wallet",
        "Name[nds]": "KDE-Knipp",
        "Name[ne]": "केडीई वालेट",
        "Name[nl]": "KDE Portefeuillebeheer",
        "Name[nn]": "KDE Wallet",
        "Name[pa]": "KDE ਵਾਲਿਟ",
        "Name[pl]": "Portfel KDE",
        "Name[pt]": "Carteira do KDE",
        "Name[pt_BR]": "Carteira do KDE",
        "Name[ro]": "Portofel KDE",
        "Name[ru]": "Бумажник",
        "Name[sk]": "KDE Wallet",
        "Name[sl]": "Listnica KDE",
        "Name[sq]": "KDE Portofoli",
        "Name[sr@ijekavian]": "К‑новчаник",
        "Name[sr@ijekavianlatin]": "K‑novčanik",
        "Name[sr@latin]": "K‑novčanik",
        "Name[sr]": "К‑новчаник",
        "Name[sv]": "KDE-plånbok",
        "Name[ta]": "கே.டீ.யீ. வாலட்",
        "Name[tg]": "KDE Ҳамён",
        "Name[th]": "กระเป๋าคุมข้อมูลของ KDE",
        "Name[tr]": "KDE Cüzdan",
        "Name[ug]": "KDE ھەميان",
        "Name[uk]": "Торбинки KDE",
        "Name[uz@cyrillic]": "KDE қопчиқ",
        "Name[uz]": "KDE qopchiq",
        "Name[vi]": "Ví KDE",
        "Name[wa]": "Poite-manoye KDE",
        "Name[x-test]": "xxKDE Walletxx",
        "Name[zh_CN]": "KDE 密码库",
        "Name[zh_TW]": "KDE 錢包",
        "ServiceTypes": [
            "KCModule"
        ]
    },
    "X-DocPath": "kwallet5/kwallet-kcontrol-module.html",
    "X-KDE-Keywords": "wallet,form fill,passwords,form data,secret service,kwallet,kdewallet,kde wallet,keepassxc,keyring,encryption,decryption,blowfish,pgp,access control,confidential,wallet manager",
    "X-KDE-Keywords[ar]": "محفظة,مدير محفظة,أسرار,خدمة الأسرار,محفظتك,تشفير,تعمية,فك تشفير,تحكم,الوصول,كلمة السر,كلمة مرور,سرية",
    "X-KDE-Keywords[bg]": "портфейл, попълване на формуляри, пароли, данни от формуляри, тайна служба, kwallet, kdewallet, kde портфейл, keepassxc, ключодържател, криптиране, декриптиране, blowfish, pgp, контрол на достъпа,конфиденциалност, мениджър на портфейл",
    "X-KDE-Keywords[ca@valencia]": "cartera,òmpliga formulari,contrasenyes,dades de formulari,servi de secrets,kwallet,kdewallet,cartera de kde,keepassxc,anell de claus, clauer,encriptació,desencriptació,blowfish,pgp,control d'accés,confidencial,gestor de carteres",
    "X-KDE-Keywords[ca]": "cartera,omple formulari,contrasenyes,dades de formulari,servi de secrets,kwallet,kdewallet,cartera de kde,keepassxc,anell de claus, clauer,encriptatge,desencriptatge,blowfish,pgp,control d'accés,confidencial,gestor de carteres",
    "X-KDE-Keywords[en_GB]": "wallet,form fill,passwords,form data,secret service,kwallet,kdewallet,kde wallet,keepassxc,keyring,encryption,decryption,blowfish,pgp,access control,confidential,wallet manager",
    "X-KDE-Keywords[es]": "cartera,rellenar formulario,contraseñas,datos de formulario,servicio secreto,kwallet,kdewallet,kde wallet,keepassxc,llavero,anillo de claves, cifrado,encriptación,encriptado,descifrado,desencriptado,desencriptación,blowfish,pgp,control de acceso,confidencial,gestor de carteras",
    "X-KDE-Keywords[eu]": "zorroa,inprimakia bete,pasahitzak,inprimakiko datuak,zerbitzu sekretua,kwallet,kdewallet,kde zorroa,keepassxc,gako-sorta,zifratzea,deszifratzea,blowfish,pgp,sarbide-kontrola,isilpekoa,zorro-kudeatzailea",
    "X-KDE-Keywords[fr]": "portefeuille, remplissage de formulaire, mots de passe, formulaire données, service de données confidentielles, kwallet, kdewallet, portefauille de KDE, keepassxc, porte-clés, chiffrement, déchiffrement, blowfish, pgp, contrôle d’accès, confidentiel, gestionnaire de portefeuille",
    "X-KDE-Keywords[it]": "portafoglio,riempimento modulo,password,dati modulo,servizio segreto,kwallet,kdewallet,portafoglio kde,keepassxc,portachiavi,cifratura,decifratura,blowfish,pgp,controllo accessi,riservato,gestore portafogli",
    "X-KDE-Keywords[lt]": "slaptažodinė,slaptazodine,forma,formos,užpildymas,uzpildymas,slaptažodžiai,slaptazodziai,formos duomenys,formų duomenys,formu duomenys,slapta tarnyba,slapta paslauga,kwallet,kdewallet,kde wallet,kde slaptažodinė,kde slaptazodine,keepassxc,raktinė,raktine,šifravimas,sifravimas,iššifravimas,issifravimas,blowfish,pgp,prieigos valdymas,konfidencialu,slaptažodinių tvarkytuvė,slaptazodiniu tvarkytuve,slaptažodinės tvarkytuvė,slaptazodines tvarkytuve,piniginė,pinigine",
    "X-KDE-Keywords[nl]": "portefeuille,formulier invullen,wachtwoorden,formuliergegevens,service voor geheimen,kwallet,kdewallet,kde wallet,keepassxc,sleutelring,versleuteling,ontsleutelen,blowfish,pgp,toegangscontrole,vertrouwelijk, portefeuillebeheerder",
    "X-KDE-Keywords[pl]": "portfel,formularz,hasła,dane formularza,secret service,kportfel,kwallet,kdewallet,kde wallet,keepassxc,pęk kluczy,szyfrowanie,odszyfrowywanie,blowfish,pgp,uprawnienia,poufne,zarządzanie portfelem",
    "X-KDE-Keywords[pt]": "carteira,preenchimento de formulários,senhas,dados do formulário,serviço de senhas,kwallet,kdewallet,carteira do kde,keepassxc,porta-chaves,encriptação,descodificação,blowfish,pgp,controlo de acessos,confidencial,gestor da carteira",
    "X-KDE-Keywords[pt_BR]": "carteira,preenchimento de formulários,senhas,dados de formulário,secret service,serviço secreto,kwallet,kdewallet,carteira do kde,keepassxc,chaveiro,criptografia,descriptografar,blowfish,pgp,controle de acesso,confidencial,gerenciador de carteira",
    "X-KDE-Keywords[sl]": "listnica,izpolnjevanje obrazca,gesla,podatki obrazca,storitve zaupnosti,kwallet,kdewallet,kde wallet,keepassxc,zbirka ključev,šifriranje,dešifriranje,blowfish,pgp,kontrola dostopa,zaupno,skrbnik listnice",
    "X-KDE-Keywords[tr]": "cüzdan,form,doldur,parolalar,form verisi,gizli servis,kcüzdan,kwallet,kdecüzdan,kdewallet,kde cüzdan,kde wallet,keepassxc,anahtar zinciri,şifreleme,şifre çözme,blowfish,pqp,erişim denetimi,gizli,cüzdan yöneticisi",
    "X-KDE-Keywords[uk]": "wallet,form fill,passwords,form data,secret service,kwallet,kdewallet,kde wallet,keepassxc,keyring,encryption,decryption,blowfish,pgp,access control,confidential,wallet manager,кишеня,сховище,дані,заповнення форм,паролі,дані форми,секретна служба,кваллет,кдєваллет,кишеня кдє,кіпассікссі,сховище ключів,в'язка ключів,шифрування,дешифрування,блоуфіш,піджіпі,керування доступом,конфіденційність,керування кишенею",
    "X-KDE-Keywords[vi]": "ví,điền biểu mẫu,mật khẩu,dữ liệu biểu mẫu,dịch vụ bí mật,kwallet,kdewallet,ví kde,keepassxc,chùm khoá,mật mã hoá,giải mật mã,blowfish,pgp,kiểm soát truy cập,mật,trình quản lí ví",
    "X-KDE-Keywords[x-test]": "xxwalletxx,xxform fillxx,xxpasswordsxx,xxform dataxx,xxsecret servicexx,xxkwalletxx,xxkdewalletxx,xxkde walletxx,xxkeepassxcxx,xxkeyringxx,xxencryptionxx,xxdecryptionxx,xxblowfishxx,xxpgpxx,xxaccess controlxx,xxconfidentialxx,xxwallet managerxx",
    "X-KDE-Keywords[zh_TW]": "wallet,form fill,passwords,form data,secret service,kwallet,kdewallet,kde wallet,keepassxc,keyring,encryption,decryption,blowfish,pgp,access control,confidential,wallet manager,錢包,密碼,秘密,鑰匙圈",
    "X-KDE-ParentApp": "kcontrol",
    "X-KDE-System-Settings-Parent-Category": "personalization"
}
